{
  "todos": [
    {
      "id": 1,
      "title": "ToDo 1",
      "completed": true
    },
    {
      "id": 2,
      "title": "ToDo 2",
      "completed": true
    },
    {
      "id": 3,
      "title": "ToDo 3",
      "completed": false
    },
    {
      "title": "wefwef",
      "completed": false,
      "id": 4
    },
    {
      "title": "aaaa",
      "completed": true,
      "id": 5
    }
  ]
}